[
    {
        "state_provine": "Hubei",
        "country_region": "Mainland China",
        "last_update": "2/1/2020 23:33",
        "confirmed": 9074,
        "deaths": 294,
        "recovered": 215
    },
    {
        "state_provine": "Zhejiang",
        "country_region": "Mainland China",
        "last_update": "2/2/2020 2:13",
        "confirmed": 661,
        "deaths": 0,
        "recovered": 23
    },
    {
        "state_provine": "Guangdong",
        "country_region": "Mainland China",
        "last_update": "2/2/2020 1:23",
        "confirmed": 604,
        "deaths": 0,
        "recovered": 14
    },
    {
        "state_provine": "Henan",
        "country_region": "Mainland China",
        "last_update": "2/2/2020 0:53",
        "confirmed": 493,
        "deaths": 2,
        "recovered": 4
    },
    {
        "state_provine": "Hunan",
        "country_region": "Mainland China",
        "last_update": "2/2/2020 1:53",
        "confirmed": 463,
        "deaths": 0,
        "recovered": 8
    },
    {
        "state_provine": "Anhui",
        "country_region": "Mainland China",
        "last_update": "2/2/2020 1:33",
        "confirmed": 340,
        "deaths": 0,
        "recovered": 5
    },
    {
        "state_provine": "Jiangxi",
        "country_region": "Mainland China",
        "last_update": "2/2/2020 1:23",
        "confirmed": 333,
        "deaths": 0,
        "recovered": 10
    },
    {
        "state_provine": "Chongqing",
        "country_region": "Mainland China",
        "last_update": "2/1/2020 23:43",
        "confirmed": 262,
        "deaths": 1,
        "recovered": 3
    },
    {
        "state_provine": "Jiangsu",
        "country_region": "Mainland China",
        "last_update": "2/2/2020 1:13",
        "confirmed": 236,
        "deaths": 0,
        "recovered": 6
    },
    {
        "state_provine": "Sichuan",
        "country_region": "Mainland China",
        "last_update": "2/2/2020 1:03",
        "confirmed": 231,
        "deaths": 1,
        "recovered": 3
    },
    {
        "state_provine": "Shandong",
        "country_region": "Mainland China",
        "last_update": "2/2/2020 1:03",
        "confirmed": 225,
        "deaths": 0,
        "recovered": 5
    },
    {
        "state_provine": "Beijing",
        "country_region": "Mainland China",
        "last_update": "2/2/2020 3:05",
        "confirmed": 183,
        "deaths": 1,
        "recovered": 9
    },
    {
        "state_provine": "Shanghai",
        "country_region": "Mainland China",
        "last_update": "2/2/2020 0:23",
        "confirmed": 177,
        "deaths": 1,
        "recovered": 10
    },
    {
        "state_provine": "Fujian",
        "country_region": "Mainland China",
        "last_update": "2/2/2020 3:43",
        "confirmed": 159,
        "deaths": 0,
        "recovered": 0
    },
    {
        "state_provine": "Shaanxi",
        "country_region": "Mainland China",
        "last_update": "2/2/2020 3:23",
        "confirmed": 116,
        "deaths": 0,
        "recovered": 0
    },
    {
        "state_provine": "Guangxi",
        "country_region": "Mainland China",
        "last_update": "2/2/2020 0:23",
        "confirmed": 111,
        "deaths": 0,
        "recovered": 2
    },
    {
        "state_provine": "Hebei",
        "country_region": "Mainland China",
        "last_update": "2/2/2020 2:53",
        "confirmed": 104,
        "deaths": 1,
        "recovered": 3
    },
    {
        "state_provine": "Heilongjiang",
        "country_region": "Mainland China",
        "last_update": "2/2/2020 3:23",
        "confirmed": 95,
        "deaths": 2,
        "recovered": 2
    },
    {
        "state_provine": "Yunnan",
        "country_region": "Mainland China",
        "last_update": "2/1/2020 15:53",
        "confirmed": 93,
        "deaths": 0,
        "recovered": 2
    },
    {
        "state_provine": "Liaoning",
        "country_region": "Mainland China",
        "last_update": "2/1/2020 15:23",
        "confirmed": 64,
        "deaths": 0,
        "recovered": 1
    },
    {
        "state_provine": "Hainan",
        "country_region": "Mainland China",
        "last_update": "2/2/2020 1:03",
        "confirmed": 63,
        "deaths": 1,
        "recovered": 1
    },
    {
        "state_provine": "Shanxi",
        "country_region": "Mainland China",
        "last_update": "2/1/2020 23:33",
        "confirmed": 56,
        "deaths": 0,
        "recovered": 1
    },
    {
        "state_provine": "Tianjin",
        "country_region": "Mainland China",
        "last_update": "2/2/2020 2:03",
        "confirmed": 45,
        "deaths": 0,
        "recovered": 0
    },
    {
        "state_provine": "Gansu",
        "country_region": "Mainland China",
        "last_update": "2/1/2020 15:43",
        "confirmed": 40,
        "deaths": 0,
        "recovered": 0
    },
    {
        "state_provine": "Guizhou",
        "country_region": "Mainland China",
        "last_update": "2/2/2020 1:03",
        "confirmed": 38,
        "deaths": 0,
        "recovered": 2
    },
    {
        "state_provine": "Ningxia",
        "country_region": "Mainland China",
        "last_update": "2/2/2020 1:43",
        "confirmed": 28,
        "deaths": 0,
        "recovered": 0
    },
    {
        "state_provine": "Inner Mongolia",
        "country_region": "Mainland China",
        "last_update": "2/2/2020 3:43",
        "confirmed": 27,
        "deaths": 0,
        "recovered": 1
    },
    {
        "state_provine": "Jilin",
        "country_region": "Mainland China",
        "last_update": "2/2/2020 2:33",
        "confirmed": 23,
        "deaths": 0,
        "recovered": 1
    },
    {
        "state_provine": "Xinjiang",
        "country_region": "Mainland China",
        "last_update": "2/2/2020 0:43",
        "confirmed": 21,
        "deaths": 0,
        "recovered": 0
    },
    {
        "state_provine": "",
        "country_region": "Japan",
        "last_update": "2/1/2020 18:53",
        "confirmed": 20,
        "deaths": 0,
        "recovered": 1
    },
    {
        "state_provine": "",
        "country_region": "Thailand",
        "last_update": "1/31/2020 10:37",
        "confirmed": 19,
        "deaths": 0,
        "recovered": 5
    },
    {
        "state_provine": "",
        "country_region": "Singapore",
        "last_update": "2/2/2020 1:03",
        "confirmed": 18,
        "deaths": 0,
        "recovered": 0
    },
    {
        "state_provine": "",
        "country_region": "South Korea",
        "last_update": "2/2/2020 2:23",
        "confirmed": 15,
        "deaths": 0,
        "recovered": 0
    },
    {
        "state_provine": "Hong Kong",
        "country_region": "Hong Kong",
        "last_update": "2/2/2020 1:03",
        "confirmed": 14,
        "deaths": 0,
        "recovered": 0
    },
    {
        "state_provine": "Taiwan",
        "country_region": "Taiwan",
        "last_update": "1/31/2020 15:20",
        "confirmed": 10,
        "deaths": 0,
        "recovered": 0
    },
    {
        "state_provine": "Qinghai",
        "country_region": "Mainland China",
        "last_update": "2/1/2020 5:37",
        "confirmed": 9,
        "deaths": 0,
        "recovered": 0
    },
    {
        "state_provine": "",
        "country_region": "Germany",
        "last_update": "2/1/2020 23:33",
        "confirmed": 8,
        "deaths": 0,
        "recovered": 0
    },
    {
        "state_provine": "",
        "country_region": "Malaysia",
        "last_update": "1/31/2020 8:15",
        "confirmed": 8,
        "deaths": 0,
        "recovered": 0
    },
    {
        "state_provine": "Macau",
        "country_region": "Macau",
        "last_update": "1/31/2020 8:15",
        "confirmed": 7,
        "deaths": 0,
        "recovered": 0
    },
    {
        "state_provine": "",
        "country_region": "France",
        "last_update": "2/1/2020 1:52",
        "confirmed": 6,
        "deaths": 0,
        "recovered": 0
    },
    {
        "state_provine": "",
        "country_region": "Vietnam",
        "last_update": "2/1/2020 7:38",
        "confirmed": 6,
        "deaths": 0,
        "recovered": 1
    },
    {
        "state_provine": "New South Wales",
        "country_region": "Australia",
        "last_update": "2/1/2020 18:12",
        "confirmed": 4,
        "deaths": 0,
        "recovered": 2
    },
    {
        "state_provine": "Victoria",
        "country_region": "Australia",
        "last_update": "2/1/2020 18:12",
        "confirmed": 4,
        "deaths": 0,
        "recovered": 0
    },
    {
        "state_provine": "",
        "country_region": "United Arab Emirates",
        "last_update": "1/31/2020 8:15",
        "confirmed": 4,
        "deaths": 0,
        "recovered": 0
    },
    {
        "state_provine": "Queensland",
        "country_region": "Australia",
        "last_update": "2/1/2020 18:12",
        "confirmed": 3,
        "deaths": 0,
        "recovered": 0
    },
    {
        "state_provine": "Ontario",
        "country_region": "Canada",
        "last_update": "2/1/2020 18:12",
        "confirmed": 3,
        "deaths": 0,
        "recovered": 0
    },
    {
        "state_provine": "",
        "country_region": "Italy",
        "last_update": "1/31/2020 8:15",
        "confirmed": 2,
        "deaths": 0,
        "recovered": 0
    },
    {
        "state_provine": "",
        "country_region": "Philippines",
        "last_update": "2/2/2020 3:33",
        "confirmed": 2,
        "deaths": 1,
        "recovered": 0
    },
    {
        "state_provine": "",
        "country_region": "Russia",
        "last_update": "1/31/2020 16:13",
        "confirmed": 2,
        "deaths": 0,
        "recovered": 0
    },
    {
        "state_provine": "",
        "country_region": "UK",
        "last_update": "2/1/2020 1:52",
        "confirmed": 2,
        "deaths": 0,
        "recovered": 0
    },
    {
        "state_provine": "Chicago, IL",
        "country_region": "US",
        "last_update": "2/1/2020 19:43",
        "confirmed": 2,
        "deaths": 0,
        "recovered": 0
    },
    {
        "state_provine": "South Australia",
        "country_region": "Australia",
        "last_update": "2/1/2020 18:12",
        "confirmed": 1,
        "deaths": 0,
        "recovered": 0
    },
    {
        "state_provine": "",
        "country_region": "Cambodia",
        "last_update": "1/31/2020 8:15",
        "confirmed": 1,
        "deaths": 0,
        "recovered": 0
    },
    {
        "state_provine": "British Columbia",
        "country_region": "Canada",
        "last_update": "2/1/2020 18:12",
        "confirmed": 1,
        "deaths": 0,
        "recovered": 0
    },
    {
        "state_provine": "",
        "country_region": "Finland",
        "last_update": "1/31/2020 8:15",
        "confirmed": 1,
        "deaths": 0,
        "recovered": 0
    },
    {
        "state_provine": "",
        "country_region": "India",
        "last_update": "1/31/2020 8:15",
        "confirmed": 1,
        "deaths": 0,
        "recovered": 0
    },
    {
        "state_provine": "Tibet",
        "country_region": "Mainland China",
        "last_update": "2/1/2020 1:52",
        "confirmed": 1,
        "deaths": 0,
        "recovered": 0
    },
    {
        "state_provine": "",
        "country_region": "Nepal",
        "last_update": "1/31/2020 8:15",
        "confirmed": 1,
        "deaths": 0,
        "recovered": 0
    },
    {
        "state_provine": "",
        "country_region": "Spain",
        "last_update": "2/1/2020 23:43",
        "confirmed": 1,
        "deaths": 0,
        "recovered": 0
    },
    {
        "state_provine": "",
        "country_region": "Sri Lanka",
        "last_update": "1/31/2020 8:15",
        "confirmed": 1,
        "deaths": 0,
        "recovered": 0
    },
    {
        "state_provine": "",
        "country_region": "Sweden",
        "last_update": "2/1/2020 2:13",
        "confirmed": 1,
        "deaths": 0,
        "recovered": 0
    },
    {
        "state_provine": "Boston, MA",
        "country_region": "US",
        "last_update": "2/1/2020 19:43",
        "confirmed": 1,
        "deaths": 0,
        "recovered": 0
    },
    {
        "state_provine": "Los Angeles, CA",
        "country_region": "US",
        "last_update": "2/1/2020 19:53",
        "confirmed": 1,
        "deaths": 0,
        "recovered": 0
    },
    {
        "state_provine": "Orange, CA",
        "country_region": "US",
        "last_update": "2/1/2020 19:53",
        "confirmed": 1,
        "deaths": 0,
        "recovered": 0
    },
    {
        "state_provine": "Santa Clara, CA",
        "country_region": "US",
        "last_update": "2/1/2020 19:53",
        "confirmed": 1,
        "deaths": 0,
        "recovered": 0
    },
    {
        "state_provine": "Seattle, WA",
        "country_region": "US",
        "last_update": "2/1/2020 19:43",
        "confirmed": 1,
        "deaths": 0,
        "recovered": 0
    },
    {
        "state_provine": "Tempe, AZ",
        "country_region": "US",
        "last_update": "2/1/2020 19:43",
        "confirmed": 1,
        "deaths": 0,
        "recovered": 0
    }
]